^D:\STUDENT\SEMESTR_1.2\ТП\ЛЕТНЯЯ ПРАКТИКА\CODE\SUMMER_PRACTISE_CODE\SUMMER_PRACTISE_CODE\DEBUG\ARMSTRONG_NUMBERS.OBJ|D:\STUDENT\SEMESTR_1.2\ТП\ЛЕТНЯЯ ПРАКТИКА\CODE\SUMMER_PRACTISE_CODE\SUMMER_PRACTISE_CODE\DEBUG\NUMBERS.OBJ
D:\WINDOWS KITS\10\LIB\10.0.18362.0\UM\X86\KERNEL32.LIB
D:\WINDOWS KITS\10\LIB\10.0.18362.0\UM\X86\USER32.LIB
D:\WINDOWS KITS\10\LIB\10.0.18362.0\UM\X86\GDI32.LIB
D:\WINDOWS KITS\10\LIB\10.0.18362.0\UM\X86\WINSPOOL.LIB
D:\WINDOWS KITS\10\LIB\10.0.18362.0\UM\X86\COMDLG32.LIB
D:\WINDOWS KITS\10\LIB\10.0.18362.0\UM\X86\ADVAPI32.LIB
D:\WINDOWS KITS\10\LIB\10.0.18362.0\UM\X86\SHELL32.LIB
D:\WINDOWS KITS\10\LIB\10.0.18362.0\UM\X86\OLE32.LIB
D:\WINDOWS KITS\10\LIB\10.0.18362.0\UM\X86\OLEAUT32.LIB
D:\WINDOWS KITS\10\LIB\10.0.18362.0\UM\X86\UUID.LIB
D:\WINDOWS KITS\10\LIB\10.0.18362.0\UM\X86\ODBC32.LIB
D:\WINDOWS KITS\10\LIB\10.0.18362.0\UM\X86\ODBCCP32.LIB
D:\STUDENT\SEMESTR_1.2\ТП\Летняя Практика\CODE\SUMMER_PRACTISE_CODE\SUMMER_PRACTISE_CODE\DEBUG\ARMSTRONG_NUMBERS.OBJ
D:\STUDENT\SEMESTR_1.2\ТП\Летняя Практика\CODE\SUMMER_PRACTISE_CODE\SUMMER_PRACTISE_CODE\DEBUG\NUMBERS.OBJ
C:\WINDOWS\SYSTEM32\TZRES.DLL
C:\WINDOWS\GLOBALIZATION\SORTING\SORTDEFAULT.NLS
C:\PROGRAM FILES (X86)\MICROSOFT VISUAL STUDIO\2019\COMMUNITY\VC\TOOLS\MSVC\14.23.28105\LIB\X86\MSVCRTD.LIB
C:\PROGRAM FILES (X86)\MICROSOFT VISUAL STUDIO\2019\COMMUNITY\VC\TOOLS\MSVC\14.23.28105\LIB\X86\OLDNAMES.LIB
C:\PROGRAM FILES (X86)\MICROSOFT VISUAL STUDIO\2019\COMMUNITY\VC\TOOLS\MSVC\14.23.28105\LIB\X86\VCRUNTIMED.LIB
D:\WINDOWS KITS\10\LIB\10.0.18362.0\UCRT\X86\UCRTD.LIB
